<svg width="96" height="96" viewBox="0 0 96 96" fill="none" xmlns="http://www.w3.org/2000/svg">
<path d="M43.4579 47.8C43.4579 52.536 44.9939 55.128 48.0019 55.128C51.0099 55.128 52.5779 52.536 52.5779 47.8C52.5779 43.064 51.0099 40.44 48.0019 40.44C44.9939 40.44 43.4579 43.064 43.4579 47.8Z" fill="#4D83B2"/>
<path fill-rule="evenodd" clip-rule="evenodd" d="M48 96C74.5097 96 96 74.5097 96 48C96 21.4903 74.5097 0 48 0C21.4903 0 0 21.4903 0 48C0 74.5097 21.4903 96 48 96ZM34.4314 51.096H36.8314V55.192H34.4314V59H29.9834V55.192H19.3914V51.096L26.8474 36.6H31.5834L24.1594 51.096H29.9834V45.784H34.4314V51.096ZM56.9619 47.8C56.9619 54.712 53.7299 59.448 48.0019 59.448C42.3059 59.448 39.0419 54.712 39.0419 47.8C39.0419 40.888 42.3059 36.152 48.0019 36.152C53.7299 36.152 56.9619 40.888 56.9619 47.8ZM74.4301 51.096H76.8301V55.192H74.4301V59H69.9821V55.192H59.3901V51.096L66.8461 36.6H71.5821L64.1581 51.096H69.9821V45.784H74.4301V51.096Z" fill="#4D83B2"/>
</svg>
