<svg width="48" height="20" viewBox="0 0 48 20" fill="none" xmlns="http://www.w3.org/2000/svg">
<path d="M14.2319 4V4.00524C14.2267 4.00524 12.5762 4 12.1361 5.57775C11.7327 7.02446 10.5957 11.0169 10.5643 11.127H10.2499C10.2499 11.127 9.0868 7.04543 8.67813 5.57251C8.23801 3.99476 6.58236 4 6.58236 4H2.81348V16H6.58411V8.87298H6.89847L9.09902 15.9999H11.717L13.9175 8.87822H14.2319V15.9999H18.0025V4H14.2319ZM28.0063 4C28.0063 4 26.9008 4.09959 26.3821 5.25806L23.7117 11.127H23.3974V4H19.6268V16H23.1878C23.1878 16 24.3457 15.8952 24.8645 14.742L27.4824 8.87303H27.7968V16H31.5674V4H28.0063ZM33.244 9.44962V16H37.0146V12.1753H41.0997C42.8811 12.1753 44.3883 11.0379 44.9489 9.45137H33.244V9.44962Z" fill="#4DB45E"/>
<path d="M41.1014 4H32.7148C33.134 6.28538 34.8472 8.11823 37.0617 8.71578C37.5759 8.85509 38.1062 8.92561 38.6388 8.9255H45.1025C45.1601 8.65294 45.1863 8.37513 45.1863 8.08683C45.1864 5.82935 43.3578 4 41.1014 4Z" fill="url(#paint0_linear)"/>
<defs>
<linearGradient id="paint0_linear" x1="32.7148" y1="6.46274" x2="45.1863" y2="6.46274" gradientUnits="userSpaceOnUse">
<stop offset="0.3" stop-color="#00B4E6"/>
<stop offset="1" stop-color="#088CCB"/>
</linearGradient>
</defs>
</svg>
