<svg width="20" height="20" viewBox="0 0 20 20" fill="none" xmlns="http://www.w3.org/2000/svg">
<path d="M10.3446 15.2135L14.2849 17.7099C14.7886 18.029 15.4139 17.5544 15.2644 16.9665L14.126 12.4881C14.0939 12.3634 14.0977 12.2322 14.137 12.1095C14.1762 11.9868 14.2492 11.8777 14.3477 11.7947L17.8811 8.85382C18.3453 8.4674 18.1057 7.69689 17.5092 7.65817L12.8949 7.3587C12.7706 7.34982 12.6514 7.30582 12.5511 7.23181C12.4509 7.15781 12.3737 7.05685 12.3286 6.94069L10.6076 2.60686C10.5609 2.48356 10.4777 2.37742 10.3692 2.30252C10.2606 2.22761 10.1319 2.1875 10 2.1875C9.86813 2.1875 9.73938 2.22761 9.63085 2.30252C9.52232 2.37742 9.43914 2.48356 9.39236 2.60686L7.6714 6.94069C7.62631 7.05685 7.54914 7.15781 7.4489 7.23181C7.34865 7.30582 7.22944 7.34982 7.10515 7.3587L2.49078 7.65817C1.89429 7.69689 1.65466 8.4674 2.11894 8.85382L5.65232 11.7947C5.75079 11.8777 5.82383 11.9868 5.86305 12.1095C5.90226 12.2322 5.90606 12.3634 5.874 12.4881L4.81824 16.6413C4.63889 17.3468 5.38929 17.9163 5.99369 17.5334L9.65539 15.2135C9.75837 15.1479 9.87792 15.1131 10 15.1131C10.1221 15.1131 10.2416 15.1479 10.3446 15.2135Z" fill="#D9DBDE"/>
</svg>
