<svg width="24" height="24" viewBox="0 0 24 24" fill="none" xmlns="http://www.w3.org/2000/svg">
<path d="M15.5999 2.40002L11.9999 6.00002L8.3999 2.40002" stroke="#334767" stroke-linejoin="round"/>
<path d="M15.5999 21.6L11.9999 18L8.3999 21.6" stroke="#334767" stroke-linejoin="round"/>
<rect x="1.2002" y="8.40002" width="21.6" height="7.2" fill="#D7E6F5"/>
<rect x="1.2002" y="14.4" width="21.6" height="1.2" fill="#334767"/>
<rect x="1.2002" y="8.40002" width="21.6" height="1.2" fill="#334767"/>
</svg>
