<svg width="48" height="48" viewBox="0 0 48 48" fill="none" xmlns="http://www.w3.org/2000/svg">
<path d="M45.3162 29.7785L45.1341 29.6732L45.042 29.7906L45.2267 29.9778L45.3162 29.7785Z" fill="#043F52"/>
<path d="M45.1338 29.6732C45.0958 29.6516 45.0436 29.6548 44.9858 29.6881L44.1679 30.16C44.0527 30.2271 43.959 30.389 43.959 30.5222V32.526C43.959 32.5926 43.9823 32.6399 44.0201 32.6615C44.0579 32.6835 44.1103 32.6804 44.1679 32.6471L44.9858 32.1747C45.1014 32.1081 45.195 31.9461 45.195 31.8125V29.8086C45.195 29.7421 45.1716 29.6953 45.1338 29.6732Z" fill="#043F52"/>
<path d="M44.2025 32.7668L44.0203 32.6616L44.2314 32.4308L44.3793 32.5522L44.2025 32.7668Z" fill="#436975"/>
<path d="M45.3159 29.7787C45.2781 29.7571 45.226 29.7602 45.1681 29.7935L44.3502 30.2654C44.2348 30.3325 44.1411 30.4944 44.1411 30.6276L44.1413 32.6314C44.1413 32.698 44.1646 32.7448 44.2024 32.7669C44.2402 32.7889 44.2926 32.7853 44.3502 32.752L45.1681 32.2801C45.2836 32.2135 45.3773 32.0511 45.3773 31.9179V29.9141C45.3773 29.8475 45.3537 29.8007 45.3159 29.7787Z" fill="#3E839A"/>
<path d="M3.58862 28.0212L4.51899 27.4841L4.51881 25.9454L3.58862 26.4826V28.0212Z" fill="#2F2E29"/>
<path d="M5.55811 26.5487C5.55811 27.8642 6.36318 29.4267 7.4352 30.3072C7.5937 30.4372 7.75768 30.5528 7.92621 30.6504C8.63552 31.0598 9.27046 31.0643 9.70434 30.7445C10.0706 30.4745 10.2945 29.9742 10.2945 29.2827C10.2945 28.5278 10.0295 27.6914 9.60086 26.9491C9.1722 26.2063 8.58032 25.5589 7.92639 25.181C7.32781 24.8355 6.78267 24.7793 6.36561 24.9615C5.87163 25.1774 5.55811 25.7295 5.55811 26.5487Z" fill="#2F2E29"/>
<path d="M6.25324 25.0183L9.59898 30.8134L7.92438 31.7803L4.57861 25.9852L6.25324 25.0183Z" fill="#2F2E29"/>
<path d="M4.7568 28.0195C4.7568 27.0662 5.4262 26.6797 6.25164 27.1566C7.07729 27.6331 7.74651 28.7924 7.74651 29.7458C7.74651 30.6991 7.07729 31.0856 6.25164 30.6087C5.4262 30.1322 4.7568 28.9728 4.7568 28.0195ZM8.02981 31.7109C8.39603 31.441 8.61994 30.9411 8.61994 30.2497C8.61994 29.4947 8.35491 28.6579 7.92647 27.9156C7.49763 27.1733 6.90575 26.5254 6.25164 26.148C5.65326 25.8024 5.10811 25.7462 4.69108 25.9284C4.19707 26.1443 3.88354 26.6964 3.88354 27.5152C3.88354 28.8311 4.68844 30.3936 5.76046 31.2736C5.91899 31.4041 6.08311 31.5197 6.25164 31.6169C6.96113 32.0267 7.59571 32.0312 8.02981 31.7109Z" fill="#444443"/>
<path d="M5.22519 28.2899C5.22501 27.6353 5.68475 27.3699 6.25168 27.6969C6.81882 28.0245 7.27834 28.8203 7.27834 29.4754C7.27834 30.13 6.81882 30.3954 6.25168 30.0679C5.68475 29.7408 5.22501 28.9445 5.22519 28.2899ZM7.74655 29.7458C7.74655 28.7924 7.07733 27.6331 6.25168 27.1566C5.42623 26.6797 4.75684 27.0662 4.75684 28.0195C4.75684 28.9728 5.42623 30.1322 6.25168 30.6087C7.07733 31.0856 7.74655 30.6991 7.74655 29.7458Z" fill="#EDAD69"/>
<path d="M7.27825 29.4754C7.27825 28.8204 6.81873 28.0245 6.25159 27.697C5.68466 27.3699 5.22492 27.6354 5.2251 28.29C5.22492 28.9446 5.68466 29.7409 6.25159 30.0679C6.81873 30.3955 7.27825 30.13 7.27825 29.4754Z" fill="#EDEDED"/>
<path d="M10.7925 29.5748C10.7925 30.8903 11.5973 32.4533 12.6694 33.3333C12.8281 33.4633 12.992 33.5794 13.1606 33.6765C13.8699 34.0859 14.5046 34.0905 14.9387 33.7706C15.305 33.5006 15.5287 33.0004 15.5289 32.3093C15.5287 31.5544 15.2637 30.7176 14.8352 29.9752C14.4066 29.2329 13.8145 28.5851 13.1607 28.2076C12.5622 27.8621 12.0171 27.8058 11.6 27.988C11.106 28.2035 10.7925 28.7556 10.7925 29.5748Z" fill="#3C3C3B"/>
<path d="M11.4881 28.0442L14.8339 33.8393L13.1592 34.8062L9.81348 29.011L11.4881 28.0442Z" fill="#2F2E29"/>
<path d="M9.99141 31.046C9.99141 30.0926 10.6608 29.7062 11.4863 30.1826C12.3119 30.6595 12.9811 31.8185 12.9811 32.7718C12.9811 33.7251 12.3119 34.1116 11.4863 33.6347C10.6606 33.1582 9.99141 31.9989 9.99141 31.046ZM13.2644 34.7374C13.6307 34.4674 13.8545 33.9672 13.8545 33.2761C13.8545 32.5207 13.5896 31.6844 13.1609 30.942C12.7323 30.1997 12.1402 29.5519 11.4865 29.1744C10.8879 28.8289 10.3427 28.7722 9.92568 28.9544C9.43152 29.1704 9.11816 29.7224 9.11816 30.5416C9.11798 31.8571 9.92307 33.4196 10.9953 34.3001C11.1536 34.4301 11.3178 34.5462 11.4863 34.6433C12.1955 35.0527 12.8304 35.0572 13.2644 34.7374Z" fill="#444443"/>
<path d="M10.4596 31.3158C10.4596 30.6612 10.9191 30.3958 11.4861 30.7233C12.053 31.0504 12.5127 31.8467 12.5127 32.5013C12.5127 33.1559 12.053 33.4213 11.4861 33.0942C10.9191 32.7667 10.4594 31.9708 10.4596 31.3158ZM12.9809 32.7717C12.9809 31.8183 12.3117 30.6594 11.4861 30.1825C10.6606 29.7061 9.99121 30.0925 9.99121 31.0459C9.99121 31.9987 10.6604 33.1581 11.4861 33.6346C12.3117 34.1115 12.9809 33.725 12.9809 32.7717Z" fill="#EDAD69"/>
<path d="M12.5129 32.5014C12.5129 31.8468 12.0532 31.0505 11.4862 30.7234C10.9193 30.3959 10.4597 30.6613 10.4597 31.3159C10.4595 31.971 10.9193 32.7668 11.4862 33.0944C12.0532 33.4214 12.5129 33.156 12.5129 32.5014Z" fill="#EDEDED"/>
<path d="M2.90918 23.605L24.5334 36.0896V40.113L14.4121 34.2698C14.4121 32.6236 13.2529 30.6157 11.831 29.7947L6.16988 26.5266C4.74796 25.7056 3.58877 26.375 3.58877 28.0212L2.90918 27.6284V23.605Z" fill="#043F52"/>
<path d="M29.2624 33.3592L24.5332 36.0896V40.113L29.2624 37.3826V33.3592Z" fill="#285D69"/>
<path d="M23.4519 21.7636V36.7478L37.414 28.6861V13.7014L23.4519 21.7636Z" fill="#E8452E"/>
<path d="M1.95166 9.34778V24.3325L23.4518 36.7478V21.7636L1.95166 9.34778Z" fill="#BF2F1B"/>
<path d="M15.9562 1.33353L37.4557 13.7462L23.4523 21.762L1.95288 9.34932L15.9562 1.33353Z" fill="#FC573F"/>
<path d="M28.9358 42.5908L31.21 41.1507V38.5215L28.9358 39.9616V42.5908Z" fill="#2F2E29"/>
<path d="M30.7256 41.047C30.7256 42.3625 31.5305 43.925 32.6027 44.8054C32.7612 44.9355 32.9254 45.0511 33.0937 45.1487C33.803 45.5581 34.4379 45.5626 34.8719 45.2427C35.2383 44.9728 35.462 44.4725 35.462 43.7815C35.462 43.0261 35.197 42.1897 34.7684 41.4474C34.3397 40.7051 33.7476 40.0572 33.0939 39.6793C32.4953 39.3338 31.9502 39.2776 31.5333 39.4598C31.0391 39.6757 30.7256 40.2277 30.7256 41.047Z" fill="#2F2E29"/>
<path d="M31.4208 39.5166L34.7668 45.3117L33.0921 46.2786L29.7463 40.4835L31.4208 39.5166Z" fill="#2F2E29"/>
<path d="M29.9245 42.5179C29.9245 41.5646 30.5937 41.1781 31.4193 41.655C32.2447 42.1315 32.9141 43.2909 32.9141 44.2442C32.9141 45.1975 32.2447 45.584 31.4191 45.1071C30.5935 44.6302 29.9245 43.4713 29.9245 42.5179ZM33.1974 46.2098C33.5635 45.9394 33.7874 45.4396 33.7874 44.7481C33.7874 43.9931 33.5224 43.1563 33.0939 42.4145C32.6651 41.6717 32.0731 41.0238 31.4193 40.6464C30.8207 40.3008 30.2757 40.2446 29.8587 40.4268C29.3645 40.6428 29.051 41.1948 29.051 42.014C29.051 43.3295 29.8561 44.892 30.9281 45.7725C31.0866 45.9025 31.2507 46.0181 31.4191 46.1158C32.1286 46.5252 32.7633 46.5297 33.1974 46.2098Z" fill="#444443"/>
<path d="M30.3925 42.7882C30.3925 42.1336 30.852 41.8682 31.4191 42.1953C31.9861 42.5228 32.4457 43.3191 32.4458 43.9737C32.4457 44.6283 31.9861 44.8937 31.419 44.5662C30.852 44.2391 30.3923 43.4428 30.3925 42.7882ZM32.914 44.2441C32.914 43.2907 32.2446 42.1314 31.4191 41.6549C30.5935 41.178 29.9243 41.5645 29.9243 42.5178C29.9243 43.4712 30.5934 44.6301 31.419 45.107C32.2446 45.5839 32.914 45.1974 32.914 44.2441Z" fill="#EDAD69"/>
<path d="M32.4459 43.9737C32.4458 43.3191 31.9862 42.5228 31.4192 42.1953C30.8521 41.8682 30.3926 42.1336 30.3926 42.7882C30.3924 43.4428 30.8521 44.2392 31.4191 44.5662C31.9862 44.8938 32.4458 44.6283 32.4459 43.9737Z" fill="#EDEDED"/>
<path d="M36.217 22.5646C36.3234 22.5034 36.4721 22.5119 36.6356 22.6069L42.1621 25.7962C42.5958 26.0468 42.9891 26.5731 43.1615 27.1328L43.3337 27.692L45.4407 34.5556L45.441 40.2468L36.0444 34.8215V31.9111L36.0442 22.9483C36.0437 22.7594 36.1106 22.6262 36.217 22.5646Z" fill="#6299AB"/>
<path d="M43.3299 27.705L33.031 33.6509L35.1416 40.5023V46.1926C39.5659 44.6189 43.4419 42.8193 45.4406 40.2468V34.556L43.3299 27.705Z" fill="#42A8C9"/>
<path d="M44.9585 33.9999C43.0733 36.248 39.6592 38.1065 35.1966 39.6353L34.9412 38.8052L33.3921 33.7915C37.6832 32.2156 41.1477 30.3507 43.1506 28.1597L44.6965 33.1531L44.9585 33.9999Z" fill="#EDAD69"/>
<path d="M43.3655 33.6943C43.3235 33.6826 43.2801 33.6736 43.2358 33.6669C41.8738 32.5295 40.2192 31.794 38.5042 31.794C38.4666 31.794 38.429 31.7944 38.3914 31.7953C40.3887 30.748 41.9578 29.6412 43.0754 28.4845L44.5396 33.2152C44.1956 33.3506 43.6555 33.5594 43.3655 33.6943Z" fill="#F2C696"/>
<path d="M25.9885 28.4703L36.217 22.5645C36.3235 22.5034 36.4722 22.5119 36.6356 22.6068L42.1621 25.7961C42.5959 26.0467 42.9892 26.5731 43.1616 27.1328L43.3338 27.692C40.1307 30.0805 36.7059 32.0767 33.031 33.6509L25.9885 28.4703Z" fill="#42A8C9"/>
<path d="M35.1416 44.451C39.5332 42.5736 43.2815 40.6278 45.4518 38.5146L46.0482 38.8467C43.4534 41.2666 39.8993 43.1837 35.738 44.7826V46.6667L35.1416 46.3347V44.451Z" fill="white"/>
<path d="M35.738 44.7826C40.0312 43.104 43.613 41.1762 46.0482 38.8467V40.7304C43.5997 43.055 39.9458 44.9576 35.738 46.6667V44.7826Z" fill="#3E839A"/>
<path d="M34.1976 45.6253V44.8411C34.1976 44.5334 34.1571 44.2135 34.0833 43.891C33.8296 42.7833 33.1734 41.6469 32.3411 40.8735C32.0989 40.6485 31.8421 40.4533 31.5757 40.2999C31.2371 40.1042 30.9146 39.9949 30.6174 39.958C29.6439 39.8383 28.9536 40.5325 28.9536 41.8133V42.62L25.7451 40.7678L25.7453 28.8937C25.7453 28.5162 26.0102 28.3637 26.3367 28.5522L31.8629 31.7424C32.2975 31.9934 32.6906 32.5189 32.8624 33.079L35.1417 40.5023V46.1926L34.1976 45.6478V45.6253Z" fill="#043F52"/>
<path d="M31.1604 32.9728V38.2717L32.5129 39.0622L33.0522 39.3735L34.1522 40.0078L34.4864 40.2L33.5464 37.1389L32.5076 33.7597L31.1604 32.9728Z" fill="#EDAD69"/>
<path d="M34.2007 39.8418L32.5788 38.906C32.7188 37.1046 32.2776 35.2704 31.3284 33.7799V33.2652L32.3659 33.8717L34.2007 39.8418Z" fill="#F2C696"/>
<path d="M26.2847 30.5816V39.8796C26.2847 40.2368 26.4756 40.5671 26.7852 40.7457L27.9212 41.4012C28.1467 41.5312 28.427 41.3962 28.4779 41.1411C28.6373 40.3403 29.0874 39.7591 29.725 39.5224C29.9334 39.4455 30.1617 39.4059 30.4044 39.4059C30.4292 39.4059 30.4703 39.4086 30.5179 39.4126C30.706 39.4297 30.8682 39.2808 30.8682 39.0923V33.1825C30.8682 32.9548 30.7467 32.7443 30.5494 32.6304L26.6441 30.3742C26.4843 30.282 26.2847 30.3976 26.2847 30.5816Z" fill="#3E839A"/>
<path d="M26.2847 35.4598V30.5816C26.2847 30.3976 26.4843 30.2819 26.6441 30.3742L30.5494 32.6304C30.7467 32.7442 30.8682 32.9548 30.8682 33.1824V38.1074L26.2847 35.4598Z" fill="#EDAD69"/>
<path d="M30.7 37.8164L28.8839 36.7673C29.0872 34.749 28.7478 32.7839 27.6133 31.1282L30.4654 32.7758C30.61 32.8594 30.7 33.0151 30.7 33.1825V37.8164Z" fill="#F2C696"/>
<path d="M33.0938 40.335L33.1841 40.3003C33.2395 40.2504 33.2437 40.1649 33.1938 40.1096L32.5458 39.3929C32.4958 39.3371 32.4107 39.333 32.3555 39.383C32.3001 39.4329 32.296 39.5184 32.3458 39.5737L32.9936 40.2904L33.0938 40.335Z" fill="#3E839A"/>
<path d="M32.9043 36.9355L32.7223 36.8306L32.6304 36.9476L32.8149 37.1348L32.9043 36.9355Z" fill="#043F52"/>
<path d="M32.7222 36.8307C32.6843 36.8086 32.632 36.8118 32.5742 36.8451L31.7563 37.3175C31.6409 37.3841 31.5474 37.546 31.5474 37.6796V39.6835C31.5474 39.7501 31.5708 39.7968 31.6085 39.8184C31.6465 39.8405 31.6987 39.8373 31.7565 39.8041L32.5744 39.3317C32.6899 39.2651 32.7834 39.1031 32.7834 38.9695V36.9661C32.7834 36.8991 32.76 36.8523 32.7222 36.8307Z" fill="#043F52"/>
<path d="M31.7909 39.9238L31.6086 39.8185L31.8197 39.5882L31.9677 39.7092L31.7909 39.9238Z" fill="#043F52"/>
<path d="M32.9043 36.9354C32.8665 36.9139 32.8143 36.917 32.7565 36.9503L31.9386 37.4222C31.8232 37.4893 31.7295 37.6512 31.7295 37.7849V39.7882C31.7295 39.8553 31.753 39.9021 31.7908 39.9237C31.8286 39.9457 31.881 39.9426 31.9386 39.9093L32.7565 39.4369C32.8721 39.3703 32.9656 39.2083 32.9656 39.0747V37.0709C32.9656 37.0043 32.9423 36.9575 32.9043 36.9354Z" fill="#3E839A"/>
<path d="M39.1898 27.167L35.0682 29.5466C34.8318 29.6833 34.4571 29.6977 34.1909 29.5807L29.5872 27.1599L35.7467 24.0025L39.2492 26.6605C39.4516 26.8143 39.4262 27.0303 39.1898 27.167Z" fill="#043F52"/>
<path d="M39.1898 26.7681L35.0682 29.1475C34.8318 29.2843 34.4569 29.2987 34.1909 29.1822L29.5872 27.1599L35.7467 23.6035L39.249 26.2615C39.4516 26.4153 39.4262 26.6317 39.1898 26.7681Z" fill="#42A8C9"/>
<path d="M38.7118 42.4256L35.5649 43.9031V43.0001C35.5649 42.5844 35.8054 42.2061 36.1818 42.0293L38.2215 41.0719C38.4496 40.9648 38.7118 41.1313 38.7118 41.3832V42.4256Z" fill="white"/>
<path d="M35.7332 43C35.7328 42.6513 35.9368 42.3297 36.2534 42.1812L38.2932 41.2234L38.3675 41.2067C38.4523 41.2067 38.5438 41.2742 38.5438 41.3831V42.3189L35.7332 43.6384V43Z" fill="#EDAD69"/>
<path d="M45.3065 38.3202L43.2148 39.9668V38.7881C43.2148 38.5321 43.3322 38.29 43.5335 38.1317L44.9248 37.0367C45.0794 36.9147 45.3065 37.0249 45.3065 37.222V38.3202Z" fill="white"/>
<path d="M43.3828 38.7883C43.3828 38.5822 43.4754 38.3915 43.6371 38.2642L45.0286 37.1687L45.0692 37.1538C45.0982 37.1538 45.1385 37.175 45.1385 37.2222V38.239L43.3828 39.6206V38.7883Z" fill="#EDAD69"/>
<path d="M39.6369 41.9189C39.4817 41.9189 39.325 41.7997 39.325 41.5716V40.8288C39.325 40.6214 39.4594 40.3861 39.6378 40.2827C40.6694 39.8157 41.5048 39.3334 42.2095 38.7994L42.2825 38.7598C42.335 38.7404 42.3814 38.731 42.4268 38.731C42.6085 38.731 42.7403 38.8781 42.7403 39.081V39.8238C42.7403 40.0334 42.603 40.2687 42.4208 40.3713C41.7932 40.8801 40.7976 41.3935 39.8193 41.869C39.7673 41.9001 39.7019 41.9189 39.6369 41.9189Z" fill="#043F52"/>
<path d="M42.5468 39.0811V39.8234C42.5468 39.9629 42.4502 40.1329 42.3263 40.2027C41.7114 40.6976 40.7599 41.1965 39.735 41.6954C39.6149 41.7652 39.5183 41.7112 39.5183 41.5717V40.8289C39.5183 40.6899 39.6149 40.5199 39.735 40.4501C40.7019 40.0133 41.576 39.522 42.3263 38.9533L42.3533 38.9416C42.4657 38.8912 42.5468 38.9533 42.5468 39.0811Z" fill="white"/>
<path d="M42.3533 38.9417V39.6768C42.3533 39.7812 42.2953 39.9085 42.2142 39.9899L42.133 40.0556L42.0209 40.1406C41.9629 40.187 41.9008 40.2338 41.8351 40.2801C41.7732 40.3224 41.7075 40.3651 41.6418 40.4074C41.5799 40.4502 41.5181 40.4889 41.456 40.5276C41.3941 40.5662 41.3284 40.6049 41.2627 40.6436C41.2008 40.6783 41.139 40.717 41.0771 40.752C41.0152 40.7867 40.9493 40.8254 40.8837 40.86C40.8218 40.8951 40.7599 40.9298 40.6981 40.9608C40.6362 40.9954 40.5705 41.0305 40.5048 41.0652C40.4427 41.0962 40.3809 41.1309 40.319 41.1619C40.2571 41.193 40.1914 41.2276 40.1257 41.2622C40.0638 41.2933 40.0018 41.3243 39.9399 41.3554C39.8742 41.386 39.8123 41.417 39.7466 41.448C39.6768 41.4827 39.6111 41.5137 39.5415 41.5488L39.5183 41.5601V40.829C39.5183 40.69 39.6149 40.5199 39.735 40.4502C39.7968 40.4232 39.851 40.3962 39.9013 40.3728C39.9747 40.3381 40.052 40.3031 40.1257 40.2684C40.1914 40.2374 40.2533 40.2063 40.319 40.1757C40.3809 40.1406 40.4427 40.1096 40.5048 40.0826C40.5705 40.048 40.6323 40.0133 40.6981 39.9823C40.7599 39.9472 40.8218 39.9125 40.8837 39.8779C40.9493 39.8428 41.0152 39.8082 41.0771 39.7695C41.139 39.7344 41.2008 39.6997 41.2627 39.6611C41.3284 39.6264 41.3903 39.5877 41.456 39.545C41.5181 39.5103 41.5799 39.4676 41.6418 39.4289C41.7075 39.3866 41.7694 39.3479 41.8351 39.3016C41.897 39.2629 41.959 39.2202 42.0209 39.1738C42.0866 39.1311 42.1523 39.0847 42.2142 39.0344L42.3263 38.9534L42.3533 38.9417Z" fill="#043F52"/>
<path d="M39.8954 40.3728V41.5601H39.7021V40.4461C39.7524 40.4232 39.8065 40.3962 39.8568 40.3728H39.8954Z" fill="white"/>
<path d="M40.2745 40.1757V41.3359H40.0811V40.2683C40.147 40.2373 40.2088 40.2062 40.2745 40.1757Z" fill="white"/>
<path d="M40.6535 39.9822V41.1074H40.46V40.0826C40.5257 40.0479 40.5875 40.0133 40.6535 39.9822Z" fill="white"/>
<path d="M41.0324 39.7693V40.8833H40.8391V39.8778C40.9048 39.8427 40.9706 39.808 41.0324 39.7693Z" fill="white"/>
<path d="M41.4116 39.545V40.6589H41.2183V39.661C41.284 39.6264 41.3458 39.5877 41.4116 39.545Z" fill="white"/>
<path d="M41.7905 39.3014V40.4307H41.5972V39.4287C41.6629 39.3864 41.7248 39.3478 41.7905 39.3014Z" fill="white"/>
<path d="M42.1696 39.0343V40.2063H41.9763V39.1738C42.0421 39.131 42.1077 39.0847 42.1696 39.0343Z" fill="white"/>
<path d="M40.1684 35.4023C40.1672 35.3758 40.1665 35.3493 40.1665 35.3218C40.1665 34.5444 40.6937 33.6311 41.3668 33.2424C41.5714 33.1245 41.7714 33.0647 41.9617 33.0647C42.3381 33.0647 42.6196 33.3013 42.7291 33.6815C42.5963 33.7058 42.4597 33.7445 42.3227 33.7953C42.2791 33.6392 42.1805 33.4885 41.9617 33.4885C41.8483 33.4885 41.7158 33.5303 41.5786 33.6095C41.0913 33.8907 40.6728 34.5646 40.6009 35.1499C40.458 35.2323 40.3139 35.3164 40.1684 35.4023Z" fill="#CA9660"/>
<path d="M35.1968 39.6353L34.9414 38.8052C36.7758 37.5099 38.5487 36.3569 40.1687 35.4022C40.3142 35.3162 40.4583 35.2321 40.6011 35.1498C40.6131 35.143 40.6252 35.1358 40.6372 35.1291C41.0244 34.5442 41.6818 34.0336 42.3229 33.7951C42.46 33.7443 42.5965 33.7056 42.7294 33.6813C42.8347 33.6624 42.9378 33.6525 43.0373 33.6525C43.1053 33.6525 43.1717 33.657 43.2361 33.6669C43.5726 33.9477 43.8916 34.2536 44.1887 34.5784C44.3959 34.3751 44.5928 34.1699 44.7708 33.9616L44.5399 33.2152C44.5986 33.1923 44.6515 33.1711 44.6966 33.1531L44.9587 33.9998C43.0735 36.248 39.6594 38.1065 35.1968 39.6353Z" fill="#CF9C65"/>
<path d="M44.1885 34.5786C43.8913 34.2538 43.5724 33.9479 43.2358 33.6671C43.2801 33.6739 43.3235 33.6829 43.3655 33.6946C43.6555 33.5596 44.1956 33.3508 44.5396 33.2154L44.7706 33.9618C44.5926 34.1701 44.3957 34.3753 44.1885 34.5786Z" fill="#D3B089"/>
<path d="M40.4742 25.1077C38.5934 24.2929 37.243 23.5384 35.9181 23.5384C35.4452 23.5384 34.9758 23.6343 34.4863 23.8578L36.0933 22.9023C36.1763 22.8528 36.2692 22.828 36.3624 22.828C36.4529 22.828 36.5432 22.8514 36.6244 22.8978L40.4742 25.1077Z" fill="#5EB5D1"/>
<path d="M4.86367 14.9607V17.5328L5.14011 17.6925C5.296 17.7824 5.38949 17.7438 5.38949 17.4869V15.6139C5.38949 15.3571 5.296 15.2104 5.14011 15.1204L4.86367 14.9607ZM4.37354 14.163L5.1489 14.6107C5.63887 14.8937 5.87965 15.3467 5.87965 15.923V17.7442C5.87965 18.3201 5.63887 18.4951 5.14872 18.2121L4.37354 17.7645V14.163Z" fill="white"/>
<path d="M6.68079 17.0132L7.35352 17.4014V17.9157L6.68079 17.5274V18.582L7.52754 19.071V19.5857L6.19067 18.8137V15.2123L7.52754 15.9843V16.4985L6.68079 16.0099V17.0132Z" fill="white"/>
<path d="M7.82983 16.159L8.31999 16.4419V19.5287L9.12648 19.9943V20.5085L7.82983 19.7604V16.159Z" fill="white"/>
<path d="M9.3396 17.0301L9.82972 17.3131V20.9146L9.3396 20.6316V17.0301Z" fill="white"/>
<path d="M10.926 20.8836L11.2999 18.1622L11.7502 18.4218L11.2688 21.7456L10.5382 21.3236L10.0569 17.4446L10.5516 17.7298L10.926 20.8836Z" fill="white"/>
<path d="M12.4672 20.3538L13.1399 20.7425V21.2563L12.4672 20.868L12.467 21.9225L13.3139 22.4116V22.9263L11.9771 22.1543V18.5528L13.3139 19.3248V19.8395L12.4672 19.3505V20.3538Z" fill="white"/>
<path d="M14.1058 20.2965V21.4028L14.2976 21.5135C14.4802 21.6187 14.5914 21.5904 14.5914 21.3024V20.9475C14.5914 20.6901 14.5157 20.5331 14.342 20.4328L14.1058 20.2965ZM14.6406 23.6923C14.6139 23.5843 14.5958 23.5173 14.5958 23.224V22.658C14.5958 22.3237 14.4979 22.1438 14.2753 22.0151L14.1058 21.917V23.3832L13.6157 23.1007V19.4993L14.3556 19.9262C14.8633 20.2196 15.0818 20.6182 15.0818 21.1742V21.4568C15.0818 21.8275 14.9793 22.0101 14.7608 22.002C15.0056 22.2621 15.0859 22.581 15.0859 22.9563V23.5119C15.0859 23.6869 15.0905 23.8178 15.1394 23.9802L14.6406 23.6923Z" fill="white"/>
<path d="M15.8207 23.1799L15.2014 20.4144L15.714 20.7105L16.0882 22.5676L16.4625 21.1428L16.9304 21.4127L16.311 23.4629V24.6565L15.8207 24.3735V23.1799Z" fill="white"/>
<path d="M17.6167 29.2612L4.32983 21.59V18.3049L17.6167 25.9756V29.2612Z" fill="white"/>
<path d="M16.7861 30.4153L21.7 29.9762L16.7863 23.863L16.7861 30.4153Z" fill="white"/>
</svg>
