<svg width="24" height="24" viewBox="0 0 24 24" fill="none" xmlns="http://www.w3.org/2000/svg">
<path fill-rule="evenodd" clip-rule="evenodd" d="M12 12H22V18.6667C22 20.5076 20.5076 22 18.6667 22H12V12Z" fill="black"/>
<path fill-rule="evenodd" clip-rule="evenodd" d="M2 12H12V22H5.33333C3.49238 22 2 20.5076 2 18.6667V12Z" fill="#E2E4E4"/>
<path fill-rule="evenodd" clip-rule="evenodd" d="M5.33333 2H18.6667C20.5076 2 22 3.49238 22 5.33333V12H2V5.33333C2 3.49238 3.49238 2 5.33333 2Z" fill="#FFC300"/>
</svg>
