<svg width="32" height="20" viewBox="0 0 32 20" fill="none" xmlns="http://www.w3.org/2000/svg">
<path d="M19.5 16.2895H12.5005V3.71045H19.5001L19.5 16.2895Z" fill="#FF5F00"/>
<path d="M12.9444 10C12.9444 7.44834 14.1391 5.17531 15.9996 3.71047C14.5913 2.60003 12.8495 1.99736 11.0561 2.00001C6.63828 2.00001 3.05713 5.58167 3.05713 10C3.05713 14.4183 6.63828 18 11.0561 18C12.8495 18.0027 14.5914 17.4 15.9997 16.2895C14.1394 14.8249 12.9444 12.5518 12.9444 10Z" fill="#EB001B"/>
<path d="M28.9432 10C28.9432 14.4183 25.3621 18 20.9443 18C19.1506 18.0026 17.4086 17.4 16 16.2895C17.861 14.8247 19.0557 12.5518 19.0557 10C19.0557 7.44821 17.861 5.17531 16 3.71047C17.4085 2.60007 19.1505 1.99741 20.9441 2.00001C25.3619 2.00001 28.9431 5.58167 28.9431 10" fill="#F79E1B"/>
</svg>
