<svg width="24" height="24" viewBox="0 0 24 24" fill="none" xmlns="http://www.w3.org/2000/svg">
<path d="M6.69843 3L9.55875 5.86031C10.0853 6.38688 10.0853 7.24062 9.55875 7.76719L7.65187 9.67406C8.53807 12.9235 11.0765 15.4619 14.3259 16.3481L16.2328 14.4413C16.7594 13.9147 17.6131 13.9147 18.1397 14.4413L21 17.3016L17.6965 20.6051C17.3777 20.9238 16.9207 21.0622 16.4786 20.9738L15.8457 20.8472C9.44053 19.5662 4.43383 14.5595 3.15279 8.15428L3.02621 7.52136C2.93779 7.07928 3.07616 6.62227 3.39495 6.30349L6.69843 3Z"/>
</svg>
