<svg width="20" height="20" viewBox="0 0 20 20" fill="none" xmlns="http://www.w3.org/2000/svg">
<path d="M18.3332 1.66666L9.1665 10.8333M18.3332 1.66666L12.4998 18.3333L9.1665 10.8333M18.3332 1.66666L1.6665 7.49999L9.1665 10.8333" />
</svg>
