<svg width="20" height="20" viewBox="0 0 20 20" fill="none" xmlns="http://www.w3.org/2000/svg">
<path d="M13 2L10 5L7 2" stroke="#334767" stroke-linejoin="round"/>
<path d="M13 18L10 15L7 18" stroke="#334767" stroke-linejoin="round"/>
<rect x="1" y="7" width="18" height="6" fill="#D7E6F5"/>
<rect x="1" y="12" width="18" height="1" fill="#334767"/>
<rect x="1" y="7" width="18" height="1" fill="#334767"/>
</svg>
